{
    "Category1s": [
      {
        "head_name": null,
        "id": 5,
        "name": "数码",
        "name_en": null
      },
      {
        "head_name": null,
        "id": 4,
        "name": "电脑",
        "name_en": null
      }
    ],
    "Category2s": [
      {
        "head_name": null,
        "id": 20,
        "name": "影音娱乐",
        "name_en": null
      },
      {
        "head_name": null,
        "id": 22,
        "name": "手机配件",
        "name_en": null
      },
      {
        "head_name": null,
        "id": 19,
        "name": "手机通讯",
        "name_en": null
      },
      {
        "head_name": null,
        "id": 15,
        "name": "电脑整机",
        "name_en": null
      },
      {
        "head_name": null,
        "id": 21,
        "name": "智能设备",
        "name_en": null
      },
      {
        "head_name": null,
        "id": 16,
        "name": "外设产品",
        "name_en": null
      }
    ],
    "Category3s": [
      {
        "head_name": null,
        "id": 169,
        "name": "耳机耳麦",
        "name_en": null
      },
      {
        "head_name": null,
        "id": 180,
        "name": "充电器/数据线",
        "name_en": null
      },
      {
        "head_name": null,
        "id": 166,
        "name": "手机",
        "name_en": null
      },
      {
        "head_name": null,
        "id": 136,
        "name": "平板电脑",
        "name_en": null
      },
      {
        "head_name": null,
        "id": 174,
        "name": "智能手表",
        "name_en": null
      },
      {
        "head_name": null,
        "id": 139,
        "name": "鼠标",
        "name_en": null
      },
      {
        "head_name": null,
        "id": 133,
        "name": "笔记本",
        "name_en": null
      },
      {
        "head_name": null,
        "id": 503,
        "name": "电脑配件",
        "name_en": null
      },
      {
        "head_name": null,
        "id": 170,
        "name": "音响",
        "name_en": null
      }
    ],
    "Brands": [
      {
        "head_name": "A",
        "id": 14,
        "name": "Apple 苹果",
        "name_en": null,
        "index": 1
      }
    ],
    "price_range": [
      {
        "id": 1,
        "from_price": 0,
        "to_price": 20,
        "text": "0-20元",
        "qty": 0
      },
      {
        "id": 2,
        "from_price": 20,
        "to_price": 60,
        "text": "20-60元",
        "qty": 0
      },
      {
        "id": 3,
        "from_price": 60,
        "to_price": 100,
        "text": "60-100元",
        "qty": 0
      },
      {
        "id": 4,
        "from_price": 100,
        "to_price": 200,
        "text": "100-200元",
        "qty": 0
      },
      {
        "id": 5,
        "from_price": 200,
        "to_price": 500,
        "text": "200-500元",
        "qty": 0
      },
      {
        "id": 6,
        "from_price": 500,
        "to_price": 1000,
        "text": "500-1000元",
        "qty": 0
      },
      {
        "id": 7,
        "from_price": 1000,
        "to_price": 2000,
        "text": "1000-2000元",
        "qty": 0
      },
      {
        "id": 8,
        "from_price": 2000,
        "to_price": 0,
        "text": "2000元以上",
        "qty": 0
      }
    ],
    "points_range": [
      {
        "id": 1,
        "from_points": 0,
        "to_points": 1000,
        "text": "0-1000分",
        "qty": 0
      },
      {
        "id": 2,
        "from_points": 1000,
        "to_points": 3000,
        "text": "1000-3000分",
        "qty": 0
      },
      {
        "id": 3,
        "from_points": 3000,
        "to_points": 5000,
        "text": "3000-5000分",
        "qty": 0
      },
      {
        "id": 4,
        "from_points": 5000,
        "to_points": 10000,
        "text": "5000-10000分",
        "qty": 0
      },
      {
        "id": 5,
        "from_points": 10000,
        "to_points": 25000,
        "text": "10000-25000分",
        "qty": 0
      },
      {
        "id": 6,
        "from_points": 25000,
        "to_points": 50000,
        "text": "25000-50000分",
        "qty": 0
      },
      {
        "id": 7,
        "from_points": 50000,
        "to_points": 100000,
        "text": "50000-100000分",
        "qty": 0
      },
      {
        "id": 8,
        "from_points": 100000,
        "to_points": 0,
        "text": "100000分以上",
        "qty": 0
      }
    ],
    "screening": [],
    "product": [
      {
        "ProductType": 0,
        "id": 124295,
        "name": "Apple AirPods2代 配充电盒 Apple蓝牙耳机",
        "KeyId": 192031,
        "brandId": 14,
        "category3Id": 169,
        "brief": "",
        "recommendDesc": "新款配备有线充电盒的airpods，apple新款蓝牙耳机，升级更有魅力",
        "sale_unit": "件",
        "name_en": "",
        "description_en": "",
        "priceId": 250824,
        "currentPrice": "1156",
        "picUrl": "/Product/20190924/ps_a53ac315-7cfd-4b6b-8f3c-d28655281bf6.jpg",
        "stock_code": "",
        "currentPoint": 0,
        "max_point": 46240,
        "stock": {
          "Id": 250857,
          "stock_code": null,
          "quantity": 1152,
          "freeze_quantity": 0
        },
        "min_point": 0,
        "max_price": "1156",
        "attribute": "H1芯片 有线充电"
      },
      {
        "ProductType": 0,
        "id": 129113,
        "name": "Apple 蓝牙耳机 AirPods2代",
        "KeyId": 196849,
        "brandId": 14,
        "category3Id": 169,
        "brief": "",
        "recommendDesc": "蓝牙连接，双波束成形麦克风，双光学传感器，语音加速感应器",
        "sale_unit": "件",
        "name_en": "",
        "description_en": "",
        "priceId": 293820,
        "currentPrice": "1158",
        "picUrl": "/Product/20200707/ps_31fd4ff2-b3ce-414e-bcba-d0d6e066b323.jpg",
        "stock_code": "",
        "currentPoint": 0,
        "max_point": 46320,
        "stock": {
          "Id": 293853,
          "stock_code": null,
          "quantity": 1002,
          "freeze_quantity": 0
        },
        "min_point": 0,
        "max_price": "1158",
        "attribute": "配有线充电盒"
      },
      {
        "ProductType": 0,
        "id": 149252,
        "name": "Apple 20W USB-C 电源适配器",
        "KeyId": 216985,
        "brandId": 14,
        "category3Id": 180,
        "brief": "",
        "recommendDesc": "20w大功率，快速充电，兼容通用",
        "sale_unit": "件",
        "name_en": "",
        "description_en": "",
        "priceId": 311252,
        "currentPrice": "149",
        "picUrl": "/Product/20201021/ps_dd03c9a8-6f25-42c7-8838-fee2797a2181.jpg",
        "stock_code": "",
        "currentPoint": 0,
        "max_point": 5960,
        "stock": {
          "Id": 311285,
          "stock_code": null,
          "quantity": 2811,
          "freeze_quantity": 0
        },
        "min_point": 0,
        "max_price": "149",
        "attribute": "白色"
      },
      {
        "ProductType": 0,
        "id": 152245,
        "name": "Apple iPhone 12 全网通5G手机 双卡双待 256GB",
        "KeyId": 219978,
        "brandId": 14,
        "category3Id": 166,
        "brief": "手机",
        "recommendDesc": "拥有再创iphone速度新高的a14仿生芯片,先进的显示屏拥有惊人的对比度和更高的分辨率",
        "sale_unit": "个",
        "name_en": "",
        "description_en": "",
        "priceId": 318711,
        "currentPrice": "7599",
        "picUrl": "/Product/20201209/ps_9ca3ed50-a766-40da-8503-730c2bb95092.jpg",
        "stock_code": "",
        "currentPoint": 0,
        "max_point": 303960,
        "stock": {
          "Id": 318744,
          "stock_code": null,
          "quantity": 10,
          "freeze_quantity": 0
        },
        "min_point": 0,
        "max_price": "7599",
        "attribute": "蓝色（7403005128）256GB"
      },
      {
        "ProductType": 0,
        "id": 152244,
        "name": "Apple iPhone 12 全网通5G手机 双卡双待 128GB",
        "KeyId": 219977,
        "brandId": 14,
        "category3Id": 166,
        "brief": "手机",
        "recommendDesc": "拥有再创iphone速度新高的a14仿生芯片,先进的显示屏拥有惊人的对比度和更高的分辨率",
        "sale_unit": "个",
        "name_en": "",
        "description_en": "",
        "priceId": 318708,
        "currentPrice": "6799",
        "picUrl": "/Product/20201209/ps_e40d9f97-b54a-4b2b-ad9e-7f06b416aac4.jpg",
        "stock_code": "",
        "currentPoint": 0,
        "max_point": 271960,
        "stock": {
          "Id": 318741,
          "stock_code": null,
          "quantity": 7,
          "freeze_quantity": 0
        },
        "min_point": 0,
        "max_price": "6799",
        "attribute": "红色（7403005122）128GB"
      },
      {
        "ProductType": 0,
        "id": 129115,
        "name": "Apple 闪电转 USB 连接线 1米",
        "KeyId": 196851,
        "brandId": 14,
        "category3Id": 180,
        "brief": "",
        "recommendDesc": "适用多种机型，兼容性强",
        "sale_unit": "件",
        "name_en": "",
        "description_en": "",
        "priceId": 263759,
        "currentPrice": "145",
        "picUrl": "/Product/20191212/ps_c16c1401-4866-4ea1-aa72-4999c726ee6e.jpg",
        "stock_code": "",
        "currentPoint": 0,
        "max_point": 5800,
        "stock": {
          "Id": 263792,
          "stock_code": null,
          "quantity": 9724,
          "freeze_quantity": 0
        },
        "min_point": 0,
        "max_price": "145",
        "attribute": "白色"
      },
      {
        "ProductType": 0,
        "id": 152236,
        "name": "Apple iPhone 12 mini 全网通5G手机 128GB",
        "KeyId": 219969,
        "brandId": 14,
        "category3Id": 166,
        "brief": "手机",
        "recommendDesc": "拥有再创iphone速度新高的a14仿生芯片,先进的显示屏拥有惊人的对比度和更高的分辨率",
        "sale_unit": "个",
        "name_en": "",
        "description_en": "",
        "priceId": 318691,
        "currentPrice": "5999",
        "picUrl": "/Product/20201209/ps_6fbfa049-5a69-4ac8-bb9b-614573e6a8db.jpg",
        "stock_code": "",
        "currentPoint": 0,
        "max_point": 239960,
        "stock": {
          "Id": 318724,
          "stock_code": null,
          "quantity": 10,
          "freeze_quantity": 0
        },
        "min_point": 0,
        "max_price": "5999",
        "attribute": "白色（7403005136）128GB"
      },
      {
        "ProductType": 0,
        "id": 148903,
        "name": "Apple iPhone 12 移动联通电信5G 双卡双待手机",
        "KeyId": 216636,
        "brandId": 14,
        "category3Id": 166,
        "brief": "iphone 12",
        "recommendDesc": "a14仿生芯片",
        "sale_unit": "部",
        "name_en": "",
        "description_en": "",
        "priceId": 317400,
        "currentPrice": "6299",
        "picUrl": "/Product/20201207/ps_8fa241cf-bb0d-44d3-9c2c-e37161dc0113.jpg",
        "stock_code": "",
        "currentPoint": 0,
        "max_point": 251960,
        "stock": {
          "Id": 317433,
          "stock_code": null,
          "quantity": 1,
          "freeze_quantity": 0
        },
        "min_point": 0,
        "max_price": "6299",
        "attribute": "64GB 白色"
      },
      {
        "ProductType": 0,
        "id": 129116,
        "name": "Apple Lightning to USB-C 连接线 1米",
        "KeyId": 196852,
        "brandId": 14,
        "category3Id": 180,
        "brief": "",
        "recommendDesc": "双面可用，type-c接口，lightning接口，兼容不弹窗",
        "sale_unit": "件",
        "name_en": "",
        "description_en": "",
        "priceId": 263760,
        "currentPrice": "145",
        "picUrl": "/Product/20191212/ps_f625565f-de75-425e-a5e7-1bff9f3de06a.jpg",
        "stock_code": "",
        "currentPoint": 0,
        "max_point": 5800,
        "stock": {
          "Id": 263793,
          "stock_code": null,
          "quantity": 4366,
          "freeze_quantity": 0
        },
        "min_point": 0,
        "max_price": "145",
        "attribute": "白色"
      },
      {
        "ProductType": 0,
        "id": 148904,
        "name": "Apple iPhone 12 mini 移动联通电信5G 手机",
        "KeyId": 216637,
        "brandId": 14,
        "category3Id": 166,
        "brief": "apple iphone 12 mini",
        "recommendDesc": "",
        "sale_unit": "部",
        "name_en": "",
        "description_en": "",
        "priceId": 310290,
        "currentPrice": "5499",
        "picUrl": "/Product/20201015/ps_27b3fa74-6568-4b3e-a113-a4b06c2c8f3d.jpg",
        "stock_code": "",
        "currentPoint": 0,
        "max_point": 219960,
        "stock": {
          "Id": 310323,
          "stock_code": null,
          "quantity": 0,
          "freeze_quantity": 0
        },
        "min_point": 0,
        "max_price": "5499",
        "attribute": "黑色/64GB"
      },
      {
        "ProductType": 0,
        "id": 136532,
        "name": "Apple iPhone SE 移动联通电信4G手机",
        "KeyId": 204268,
        "brandId": 14,
        "category3Id": 166,
        "brief": "苹果手机",
        "recommendDesc": "新一代iphone se拥有超强的芯片和惹人喜爱的尺寸，价格更是让人动心，你期待的它来了。",
        "sale_unit": "个",
        "name_en": "",
        "description_en": "",
        "priceId": 321344,
        "currentPrice": "4499",
        "picUrl": "/Product/20200909/ps_656b53b5-a345-4e32-a099-4e930bbc0a1d.jpg",
        "stock_code": "",
        "currentPoint": 0,
        "max_point": 179960,
        "stock": {
          "Id": 321377,
          "stock_code": null,
          "quantity": 6,
          "freeze_quantity": 0
        },
        "min_point": 0,
        "max_price": "4499",
        "attribute": "白色（7402716516）256GB"
      },
      {
        "ProductType": 0,
        "id": 152237,
        "name": "Apple iPhone 12 mini 全网通5G手机 256GB",
        "KeyId": 219970,
        "brandId": 14,
        "category3Id": 166,
        "brief": "手机",
        "recommendDesc": "拥有再创iphone速度新高的a14仿生芯片,先进的显示屏拥有惊人的对比度和更高的分辨率",
        "sale_unit": "个",
        "name_en": "",
        "description_en": "",
        "priceId": 318696,
        "currentPrice": "6799",
        "picUrl": "/Product/20201209/ps_7b1d0715-2488-4450-ac53-13ecd04a7b07.jpg",
        "stock_code": "",
        "currentPoint": 0,
        "max_point": 271960,
        "stock": {
          "Id": 318729,
          "stock_code": null,
          "quantity": 37,
          "freeze_quantity": 0
        },
        "min_point": 0,
        "max_price": "6799",
        "attribute": "蓝色（7403005143）256GB"
      },
      {
        "ProductType": 0,
        "id": 129120,
        "name": "Apple Lightning to USB 连接线 2 米",
        "KeyId": 196856,
        "brandId": 14,
        "category3Id": 180,
        "brief": "",
        "recommendDesc": "双面可用，兼容性强",
        "sale_unit": "件",
        "name_en": "",
        "description_en": "",
        "priceId": 263764,
        "currentPrice": "243",
        "picUrl": "/Product/20191212/ps_1def5d75-1d0c-460a-8c08-6afc5dc5dd13.jpg",
        "stock_code": "",
        "currentPoint": 0,
        "max_point": 9720,
        "stock": {
          "Id": 263797,
          "stock_code": null,
          "quantity": 4885,
          "freeze_quantity": 0
        },
        "min_point": 0,
        "max_price": "243",
        "attribute": "白色"
      },
      {
        "ProductType": 0,
        "id": 129119,
        "name": "Apple USB-C to USB Adapter 转换器",
        "KeyId": 196855,
        "brandId": 14,
        "category3Id": 180,
        "brief": "",
        "recommendDesc": "转换器，兼容性强",
        "sale_unit": "件",
        "name_en": "",
        "description_en": "",
        "priceId": 263763,
        "currentPrice": "199",
        "picUrl": "/Product/20191212/ps_878900e4-3c1b-480e-ab9b-f6fcccf66279.jpg",
        "stock_code": "",
        "currentPoint": 0,
        "max_point": 7960,
        "stock": {
          "Id": 263796,
          "stock_code": null,
          "quantity": 4618,
          "freeze_quantity": 0
        },
        "min_point": 0,
        "max_price": "199",
        "attribute": "白色"
      },
      {
        "ProductType": 0,
        "id": 129205,
        "name": "Apple 30W USB-C 电源适配器",
        "KeyId": 196941,
        "brandId": 14,
        "category3Id": 180,
        "brief": "",
        "recommendDesc": "多场合使用，兼容多种机型",
        "sale_unit": "件",
        "name_en": "",
        "description_en": "",
        "priceId": 264006,
        "currentPrice": "340",
        "picUrl": "/Product/20191212/ps_bb95a746-eba0-4901-8d19-65d92f1226cc.jpg",
        "stock_code": "",
        "currentPoint": 0,
        "max_point": 13600,
        "stock": {
          "Id": 264039,
          "stock_code": null,
          "quantity": 2232,
          "freeze_quantity": 0
        },
        "min_point": 0,
        "max_price": "340",
        "attribute": "白色"
      },
      {
        "ProductType": 0,
        "id": 149396,
        "name": "Apple 60W MagSafe 2 电源适配器 ",
        "KeyId": 217129,
        "brandId": 14,
        "category3Id": 180,
        "brief": "",
        "recommendDesc": "led充电指示灯，磁性直流电接头，适用于配备 retina 显示屏的 macbook pro。",
        "sale_unit": "个",
        "name_en": "",
        "description_en": "",
        "priceId": 311669,
        "currentPrice": "584",
        "picUrl": "/Product/20201023/ps_77baca04-7592-4ee2-9196-f5dc4030b17f.jpg",
        "stock_code": "",
        "currentPoint": 0,
        "max_point": 23360,
        "stock": {
          "Id": 311702,
          "stock_code": null,
          "quantity": 995,
          "freeze_quantity": 0
        },
        "min_point": 0,
        "max_price": "584",
        "attribute": "白色"
      },
      {
        "ProductType": 0,
        "id": 151555,
        "name": "Apple iPhone 12 (A2404) 64GB 全网通5G 双卡双待手机",
        "KeyId": 219288,
        "brandId": 14,
        "category3Id": 166,
        "brief": "",
        "recommendDesc": "a14仿生芯片，6.1英寸超视网膜xdr显示屏，升维大提速",
        "sale_unit": "件",
        "name_en": "",
        "description_en": "",
        "priceId": 316883,
        "currentPrice": "6299",
        "picUrl": "/Product/20201124/ps_10da1a2c-682a-4e90-a831-cf57b0ff6b7e.jpg",
        "stock_code": "",
        "currentPoint": 0,
        "max_point": 251960,
        "stock": {
          "Id": 316916,
          "stock_code": null,
          "quantity": 97,
          "freeze_quantity": 0
        },
        "min_point": 0,
        "max_price": "6299",
        "attribute": "红色/64G/全网通"
      },
      {
        "ProductType": 0,
        "id": 151648,
        "name": "Apple iPad (第八代) 智能保护盖",
        "KeyId": 219381,
        "brandId": 14,
        "category3Id": 503,
        "brief": "",
        "recommendDesc": "智能，保护盖，可折叠不同的角度",
        "sale_unit": "个",
        "name_en": "",
        "description_en": "",
        "priceId": 317052,
        "currentPrice": "387",
        "picUrl": "/Product/20201125/ps_94e59241-ac11-427d-bffa-f9e63dfdabd1.jpg",
        "stock_code": "",
        "currentPoint": 0,
        "max_point": 15480,
        "stock": {
          "Id": 317085,
          "stock_code": null,
          "quantity": 1000,
          "freeze_quantity": 0
        },
        "min_point": 0,
        "max_price": "387",
        "attribute": "深绿色"
      },
      {
        "ProductType": 0,
        "id": 151523,
        "name": "Apple 20W USB-C 电源适配器+Apple iphone 12/12pro 专用 MagSafe 透明手机壳",
        "KeyId": 219256,
        "brandId": 14,
        "category3Id": 180,
        "brief": "",
        "recommendDesc": "20w大功率，快速充电，兼容通用，手机壳内外防刮涂层",
        "sale_unit": "套",
        "name_en": "",
        "description_en": "",
        "priceId": 316788,
        "currentPrice": "548",
        "picUrl": "/Product/20201124/ps_b75853a0-3e5f-44f6-b042-987c76baf1e4.jpg",
        "stock_code": "",
        "currentPoint": 0,
        "max_point": 21920,
        "stock": {
          "Id": 316821,
          "stock_code": null,
          "quantity": 984,
          "freeze_quantity": 0
        },
        "min_point": 0,
        "max_price": "548",
        "attribute": "白色"
      },
      {
        "ProductType": 0,
        "id": 151646,
        "name": "Apple iPad mini 智能保护盖",
        "KeyId": 219379,
        "brandId": 14,
        "category3Id": 503,
        "brief": "",
        "recommendDesc": "ipad mini，可折叠，关上休眠",
        "sale_unit": "个",
        "name_en": "",
        "description_en": "",
        "priceId": 317049,
        "currentPrice": "321",
        "picUrl": "/Product/20201125/ps_4f9198dc-4816-422d-8a18-17800219f7aa.jpg",
        "stock_code": "",
        "currentPoint": 0,
        "max_point": 12840,
        "stock": {
          "Id": 317082,
          "stock_code": null,
          "quantity": 998,
          "freeze_quantity": 0
        },
        "min_point": 0,
        "max_price": "321",
        "attribute": "木瓜色"
      },
      {
        "ProductType": 0,
        "id": 143253,
        "name": "Apple 2020新款 MacBook Air 13.3 Retina屏 十代i3 8G 256G 笔记本电脑",
        "KeyId": 210987,
        "brandId": 14,
        "category3Id": 133,
        "brief": "",
        "recommendDesc": "",
        "sale_unit": "件",
        "name_en": "",
        "description_en": "",
        "priceId": 296152,
        "currentPrice": "7999",
        "picUrl": "/Product/20200720/ps_653b0727-1d2b-426b-a8e4-2d9e3f15b5b9.jpg",
        "stock_code": "",
        "currentPoint": 0,
        "max_point": 319960,
        "stock": {
          "Id": 296185,
          "stock_code": null,
          "quantity": 551,
          "freeze_quantity": 0
        },
        "min_point": 0,
        "max_price": "7999",
        "attribute": "TK2银色"
      },
      {
        "ProductType": 0,
        "id": 143252,
        "name": "Apple 2020新款 MacBook Air 13.3 Retina屏 十代i5 8G 512G 笔记本电脑",
        "KeyId": 210986,
        "brandId": 14,
        "category3Id": 133,
        "brief": "",
        "recommendDesc": "",
        "sale_unit": "件",
        "name_en": "",
        "description_en": "",
        "priceId": 296149,
        "currentPrice": "8799",
        "picUrl": "/Product/20200720/ps_f7bdd4ce-e185-4aa7-a4e9-b06abd722612.jpg",
        "stock_code": "",
        "currentPoint": 0,
        "max_point": 351960,
        "stock": {
          "Id": 296182,
          "stock_code": null,
          "quantity": 553,
          "freeze_quantity": 0
        },
        "min_point": 0,
        "max_price": "8799",
        "attribute": "H42银色"
      },
      {
        "ProductType": 0,
        "id": 151089,
        "name": "Apple iPhone 12 mini (A2400) 128GB 手机 支持移动联通电信5G",
        "KeyId": 218822,
        "brandId": 14,
        "category3Id": 166,
        "brief": "",
        "recommendDesc": "",
        "sale_unit": "件",
        "name_en": "",
        "description_en": "",
        "priceId": 315879,
        "currentPrice": "5999",
        "picUrl": "/Product/20201116/ps_94310627-64de-4b0a-9b09-eebeaa8f77b0.jpg",
        "stock_code": "",
        "currentPoint": 0,
        "max_point": 239960,
        "stock": {
          "Id": 315912,
          "stock_code": null,
          "quantity": 190,
          "freeze_quantity": 0
        },
        "min_point": 0,
        "max_price": "5999",
        "attribute": "黑色/128G/全网通"
      },
      {
        "ProductType": 0,
        "id": 152235,
        "name": "Apple iPhone 12 mini 全网通5G手机 64GB",
        "KeyId": 219968,
        "brandId": 14,
        "category3Id": 166,
        "brief": "手机",
        "recommendDesc": "拥有再创iphone速度新高的a14仿生芯片,先进的显示屏拥有惊人的对比度和更高的分辨率",
        "sale_unit": "个",
        "name_en": "",
        "description_en": "",
        "priceId": 318687,
        "currentPrice": "5499",
        "picUrl": "/Product/20210224/ps_5afed468-3d2c-4655-a1d2-ce45e75ecd2f.jpg",
        "stock_code": "",
        "currentPoint": 0,
        "max_point": 219960,
        "stock": {
          "Id": 318720,
          "stock_code": null,
          "quantity": 10,
          "freeze_quantity": 0
        },
        "min_point": 0,
        "max_price": "5499",
        "attribute": "蓝色（7403005133）64GB"
      }
    ],
    "FlagShipInfo": null,
    "pageIndex": 0,
    "totalPage": 3,
    "totalCount": 51,
    "IsRecommendResult": false,
    "oldkeyword": "apple",
    "newkeyword": ""
  }